<?xml version="1.0" encoding="UTF-8"?>
<svg width="544px" height="547px" viewBox="0 0 544 547" version="1.1" xmlns="http://www.w3.org/2000/svg" xmlns:xlink="http://www.w3.org/1999/xlink">
    <!-- Generator: Sketch 55.2 (78181) - https://sketchapp.com -->
    <title>Oval Copy 45</title>
    <desc>Created with Sketch.</desc>
    <g id="Landing-Pages" stroke="none" stroke-width="1" fill="none" fill-rule="evenodd">
        <path d="M271.442033,547 C372.040315,547 356.995055,477.395066 403.638493,447.126474 C449.351727,417.461525 516.271795,427.633912 540.070316,378.203576 C558.847058,339.203644 504.236776,271.644907 504.236776,225.47168 C504.236776,127.26102 565.496108,161.318425 504.236776,33.4567712 C475.218041,-27.1116899 337.692618,16.7037926 271.442033,16.7037926 C176.954289,16.7037926 123.124052,-30.3334166 57.9931131,33.4567712 C11.8262584,78.6732592 -9.71726922,162.325837 11.5631367,225.47168 C31.8468385,285.659979 -22.6068405,329.738845 11.5631367,378.181523 C32.8749313,408.395193 83.2007208,430.011541 116.030584,447.126474 C205.021372,493.519338 170.84375,547 271.442033,547 Z" id="Oval-Copy-45" fill="#1A8BE3"></path>
    </g>
</svg>