<?xml version="1.0" encoding="UTF-8"?>
<svg width="34px" height="34px" viewBox="0 0 34 34" version="1.1" xmlns="http://www.w3.org/2000/svg" xmlns:xlink="http://www.w3.org/1999/xlink">
    <!-- Generator: Sketch 55.2 (78181) - https://sketchapp.com -->
    <title>Group 7</title>
    <desc>Created with Sketch.</desc>
    <g id="Web-app" stroke="none" stroke-width="1" fill="none" fill-rule="evenodd">
        <g id="Setting---Plan-and-Billing" transform="translate(-399.000000, -627.000000)">
            <g id="Group-7" transform="translate(399.000000, 627.000000)">
                <circle id="Oval" fill="#F3F8FF" cx="17" cy="17" r="17"></circle>
                <g id="phone-24px" transform="translate(5.000000, 5.000000)">
                    <polygon id="Path" points="0 0 24 0 24 24 0 24"></polygon>
                    <path d="M6.54,5 C6.6,5.89 6.75,6.76 6.99,7.59 L5.79,8.79 C5.38,7.59 5.12,6.32 5.03,5 L6.54,5 L6.54,5 Z M16.4,17.02 C17.25,17.26 18.12,17.41 19,17.47 L19,18.96 C17.68,18.87 16.41,18.61 15.2,18.21 L16.4,17.02 L16.4,17.02 Z M7.5,3 L4,3 C3.45,3 3,3.45 3,4 C3,13.39 10.61,21 20,21 C20.55,21 21,20.55 21,20 L21,16.51 C21,15.96 20.55,15.51 20,15.51 C18.76,15.51 17.55,15.31 16.43,14.94 C16.33,14.9 16.22,14.89 16.12,14.89 C15.86,14.89 15.61,14.99 15.41,15.18 L13.21,17.38 C10.38,15.93 8.06,13.62 6.62,10.79 L8.82,8.59 C9.1,8.31 9.18,7.92 9.07,7.57 C8.7,6.45 8.5,5.25 8.5,4 C8.5,3.45 8.05,3 7.5,3 Z" id="Shape" fill="#2883FC" fill-rule="nonzero"></path>
                </g>
            </g>
        </g>
    </g>
</svg>