<?xml version="1.0" encoding="UTF-8"?>
<svg width="298px" height="314px" viewBox="0 0 298 314" version="1.1" xmlns="http://www.w3.org/2000/svg" xmlns:xlink="http://www.w3.org/1999/xlink">
    <!-- Generator: Sketch 55.2 (78181) - https://sketchapp.com -->
    <title>Group 87</title>
    <desc>Created with Sketch.</desc>
    <g id="Web-app" stroke="none" stroke-width="1" fill="none" fill-rule="evenodd">
        <g id="Sign-up-v1.01-Copy" transform="translate(-125.000000, -389.000000)">
            <g id="Group-87" transform="translate(125.000000, 389.000000)">
                <path d="M177.4953,301.801505 C178.8453,302.618445 180.2151,303.45068 181.296,304.61131 C182.3778,305.77284 183.1536,307.325746 183.0492,308.921837 C183.0087,309.539041 182.8134,310.183236 182.3436,310.573711 C181.8027,311.022668 181.0413,311.032565 180.3438,311.013671 C171.5958,310.784244 162.8739,309.503952 154.4166,307.205184 C152.586,306.707642 150.741,306.15072 149.1399,305.117849 C148.7781,304.883023 148.4181,304.613109 148.2075,304.231631 C148.014,303.879843 147.9654,303.465975 147.9258,303.063803 C147.5136,298.89723 147.6738,294.672175 148.3992,290.551488 C148.4244,290.407534 148.4604,290.248284 148.5792,290.16641 C148.6899,290.089935 148.8366,290.107929 148.9698,290.127723 C151.4241,290.504703 153.8784,290.880783 156.3318,291.257763 C160.0812,291.833579 164.3094,292.224955 167.1309,295.009568 C170.0307,297.870657 174.0312,299.705172 177.4953,301.801505" id="Fill-1" fill="#1E1047"></path>
                <path d="M142.54209,303.613258 C144.01899,304.449991 145.51749,305.30202 146.71359,306.518433 C147.90969,307.735745 148.78719,309.385819 148.71519,311.113269 C148.68729,311.779957 148.49469,312.482633 147.99789,312.919894 C147.42639,313.421934 146.60469,313.457923 145.85229,313.461521 C136.41399,313.506507 126.97659,312.416054 117.79749,310.219854 C115.81119,309.743905 113.80689,309.204077 112.05459,308.142415 C111.65679,307.902192 111.26259,307.622381 111.02589,307.21751 C110.80809,306.844129 110.74419,306.39967 110.69109,305.966908 C110.13939,301.483636 110.20239,296.91759 110.87739,292.445115 C110.90079,292.288564 110.93499,292.116719 111.06099,292.024049 C111.17889,291.937676 111.33729,291.951172 111.48129,291.969166 C114.13719,292.293063 116.79309,292.61786 119.44899,292.942656 C123.50619,293.437499 128.07549,293.719109 131.18949,296.628782 C134.39079,299.621229 138.75219,301.466542 142.54209,303.613258" id="Fill-3" fill="#1E1047"></path>
                <path d="M146.38617,217.982309 C148.78647,228.574636 149.53077,239.441375 148.56597,250.276624 L148.52277,251.10616 L147.27717,292.362521 L153.97047,293.0562 L164.75607,294.173644 C164.75607,294.173644 171.98847,221.541575 168.95727,208.179031 L160.56027,156.295254 L133.78077,162.62204 L141.06717,194.643742 L146.38617,217.982309 Z" id="Fill-5" fill="#1E1047"></path>
                <path d="M133.12089,191.688543 C132.31449,180.11103 131.58639,168.527219 130.93659,156.939809 C130.88529,156.019402 130.93659,154.899259 131.73039,154.459299 C132.23529,154.179488 132.85809,154.30095 133.41159,154.463798 C137.84229,155.763884 141.47649,159.161202 143.91369,163.152331 C146.34999,167.144359 147.70809,171.715803 148.77189,176.289947 C149.70429,180.295471 153.62109,192.241866 148.64589,194.52174 C147.20319,195.18213 132.97959,189.664187 133.12089,191.688543" id="Fill-7" fill="#1E1047"></path>
                <path d="M110.81556,292.676161 L128.72196,294.005938 L145.03446,160.325611 L110.97126,160.701691 C110.97126,160.701691 113.19336,230.771376 111.58776,238.861599 L110.81556,292.676161 Z" id="Fill-9" fill="#1E1047"></path>
                <path d="M131.36832,164.445849 C131.36832,164.445849 131.65632,173.649018 122.78862,177.196588" id="Stroke-11" stroke="#13279C" stroke-width="1.1574"></path>
                <path d="M148.52286,251.10652 L147.27726,292.361981 L153.93276,293.582892 C153.93276,293.582892 153.94176,293.395752 153.96966,293.05656 C154.20456,288.589483 155.90736,256.825099 155.84436,244.194921 C155.77686,230.595752 151.89966,197.547477 151.89966,197.547477 L143.74836,194.598216 L141.06726,194.643202 L146.38626,217.982669 C148.78656,228.574995 149.53086,239.440835 148.56606,250.276084 L148.52286,251.10652 Z" id="Fill-13" fill="#1E1047"></path>
                <path d="M125.51634,69.4092951 C125.51634,69.4092951 124.34454,69.874447 122.48064,70.6491003 C115.53624,73.5371805 98.99604,80.7204928 97.79724,84.1169112 C96.27714,88.4229398 82.08594,123.635026 85.12704,134.780676 C87.53814,143.620361 97.09524,141.784046 103.87674,142.573994 C106.88094,142.923983 106.49934,144.44 106.92414,147.437845 C107.41464,150.901742 107.85564,154.373736 108.24534,157.851129 C109.00044,164.601679 109.56204,171.373822 109.93014,178.155862 C109.96254,178.75867 110.03004,179.435255 110.49714,179.816734 C111.12264,180.325971 112.04514,180.009272 112.79304,179.705169 C122.72634,175.669954 133.92684,177.985817 144.64764,178.094682 C147.67164,178.125272 150.75144,177.964223 153.59454,176.935851 C156.82644,175.766223 161.88894,172.664911 163.63134,169.570797 C165.14514,166.881553 163.74834,161.36451 163.53054,158.240705 C163.14264,152.675977 162.75474,147.11035 162.36684,141.544722 C161.84754,134.105891 161.32914,126.66796 160.81074,119.229129 C160.81074,119.229129 164.86524,88.1701203 161.48664,82.0898567 C158.10714,76.0104928 143.26794,66.8604069 125.51634,69.4092951" id="Fill-15" fill="#6CB065"></path>
                <path d="M148.3857,129.593378 C141.3171,133.698771 135.1728,139.38406 130.5324,146.111218 C132.6834,143.694587 136.935,144.641086 139.0401,147.097304 C141.1461,149.554421 141.7311,152.91935 142.4097,156.081842 C143.4978,161.152628 145.0224,166.129842 146.9619,170.939711 C147.8358,173.106221 148.9671,175.420284 151.1019,176.369481 C153.2718,177.334874 155.8656,176.556622 157.8114,175.195355 C161.9811,172.274885 163.9782,167.01696 164.2896,161.937178 C164.6019,156.857395 163.4751,151.815401 162.5994,146.802198 C160.8372,136.705613 160.0767,126.435384 160.3332,116.190347 C155.4093,118.194009 149.8338,118.255189 144.999,120.464885 C141.2613,122.173441 138.2085,125.053424 135.2286,127.883023 C129.4164,133.402765 123.6042,138.922507 117.792,144.442249 C121.9365,144.437751 126.0801,144.433252 130.2246,144.428754" id="Fill-17" fill="#4E8B46"></path>
                <path d="M156.81834,46.6747954 C156.86424,48.7378384 156.88044,50.8017811 156.86784,52.8648241 C156.85614,54.7794143 156.81924,56.702102 156.48534,58.586102 C156.11724,60.6689387 155.34684,62.7499759 153.86274,64.256996 C151.07094,67.0910934 146.63484,67.2071564 142.66494,67.4851679 C142.03494,67.5301536 141.37524,67.5931335 140.85144,67.9449215 C139.48884,68.8590304 139.87854,70.9220734 139.43574,72.5019702 C138.78054,74.8376264 136.18404,76.0837295 133.77474,76.3698384 C130.94964,76.7054315 127.88334,75.5960848 125.67654,73.8272481 C125.37684,73.5870246 125.08344,73.3180103 124.93134,72.9671221 C124.77114,72.5964401 124.78464,72.1762739 124.80714,71.7732023 C124.91694,69.7992309 125.15454,67.7865719 124.66224,65.8719817 C124.22214,64.1589272 123.22494,62.6438097 122.60934,60.9847381 C121.91004,59.0989387 121.70934,57.0430934 120.87504,55.2121765 C120.20274,53.734847 119.14164,52.4590533 118.46754,50.9808241 C117.41454,48.6712596 117.37764,46.0440963 117.35874,43.5051049 C117.34704,41.834337 117.34254,40.1194831 117.93744,38.5584802 C118.52334,37.0208699 119.64564,35.7549731 120.74364,34.5286636 C124.48134,30.3530934 127.82304,26.3061822 133.05834,23.9741249 C136.73034,22.3375461 140.81184,21.418039 144.79344,21.9749616 C149.42034,22.6218556 154.59984,25.2652138 155.83284,30.1398613 C156.70314,33.5785662 156.46914,37.7424401 156.63384,41.2801135 C156.71754,43.0768413 156.77874,44.8753685 156.81834,46.6747954" id="Fill-19" fill="#FFB5B5"></path>
                <path d="M154.04391,61.5429203 C154.36701,61.4016653 154.74591,61.2055278 154.77471,60.8537398 C152.78481,60.4344734 150.71301,61.0264848 148.87521,61.895608 C147.58101,62.5074132 146.35341,63.2586739 145.21941,64.1331954 C143.49681,65.4611725 141.92631,67.1094476 139.85811,67.7860321 C139.85811,67.3001868 148.56471,67.1805249 149.29641,66.5849146 C149.63931,66.3078029 149.67441,65.6474132 149.85261,65.2542384 C150.11001,64.6865192 150.47361,64.1727828 150.89301,63.7139289 C151.75881,62.7674304 152.87481,62.055757 154.04391,61.5429203" id="Fill-21" fill="#E79B9D"></path>
                <path d="M161.89119,27.2044562 C164.19609,25.4023301 165.04389,21.6397284 163.07019,19.480416 C162.34209,18.6841696 161.26659,18.0732642 161.06409,17.0143014 C160.91739,16.2459461 161.29179,15.4892871 161.51499,14.7389261 C162.19269,12.4491553 161.33319,9.78420401 159.44409,8.32216963 C158.75919,7.79133868 157.93569,7.38646762 157.47399,6.65320115 C157.07889,6.02520115 157.01229,5.25324699 156.82509,4.53527564 C155.84409,0.777172493 150.78609,-1.2066957 147.51099,0.880639542 C146.86479,1.29270831 146.29599,1.82353926 145.62099,2.18612378 C143.19819,3.48800917 139.95819,2.37326418 137.62089,3.82450201 C136.16649,4.72781433 135.42759,6.40488023 134.37099,7.75085158 C132.50079,10.1341926 129.63879,11.4711668 126.92889,12.8252355 C123.51249,14.5328917 120.11499,16.4438831 117.50769,19.2347943 C114.90039,22.0248057 113.15889,25.8449891 113.66019,29.6300837 C113.93199,31.6823301 114.83919,33.6410063 114.84009,35.711247 C114.84189,38.7558774 113.72049,41.0843358 115.17579,44.0174017 C116.13429,45.9481868 116.31609,48.1119977 116.98659,50.1912355 C117.47079,51.6910579 117.00999,53.3879175 117.56799,54.8616481 C118.53369,57.4114361 122.21109,58.5135851 122.40639,61.2316195 C122.81139,58.4218143 122.44329,55.5040436 121.35249,52.8822785 C120.78369,51.5156138 120.02049,50.2218258 119.62179,48.7948802 C119.22399,47.3688344 119.24559,45.7187599 120.14649,44.5428344 C121.01859,43.4046968 122.67279,42.939545 124.01109,43.4577799 C125.52129,44.0434934 125.98839,45.4371496 126.24039,46.873992 C128.77479,46.4943129 128.38059,42.3907198 127.92699,40.6686682 C127.31229,38.3276138 126.77319,35.281184 128.80629,33.9667026 C130.03479,33.1704562 131.63769,33.4718602 133.09479,33.3306052 C135.35109,33.1110751 137.45259,31.6796309 138.48129,29.6597742 C138.01419,30.5756825 143.14779,31.0930178 143.61399,31.032737 C145.60209,30.7745192 147.25539,29.713757 148.48839,28.1806453 C151.86609,29.8496138 158.95989,29.4960264 161.89119,27.2044562" id="Fill-23" fill="#FF9C20"></path>
                <path d="M167.22198,121.553989 C174.33918,124.687691 191.87748,125.276103 193.11408,114.413862 C193.42998,111.638246 191.98818,108.997587 190.59408,106.575559 C183.88188,94.9089742 177.14178,83.2001032 168.90588,72.5537937 C167.32728,70.5141433 165.57228,68.4241089 163.14498,67.5504871 C156.67128,65.2211289 156.87108,71.4921318 156.86928,75.6218166 C156.86838,80.4811691 156.86658,85.3405215 156.86568,90.1989742 C156.86388,98.1920287 156.84408,106.185083 156.87198,114.178138 C156.88818,118.906132 167.22198,121.553989 167.22198,121.553989" id="Fill-25" fill="#6CB065"></path>
                <path d="M157.03506,78.5759358 C157.62006,81.3659473 158.81166,83.9850132 159.95646,86.5950819 C162.09126,91.4607324 164.09556,96.3839645 165.96666,101.356681 C166.05216,101.585208 166.13946,101.832629 166.07736,102.067454 C165.94056,102.588389 165.24756,102.672062 164.70936,102.649569 C163.46016,102.595586 162.21006,102.542503 160.96086,102.48852 C160.59546,102.474125 160.22466,102.45703 159.87816,102.338268 C159.38136,102.169122 158.97816,101.805638 158.57496,101.470045 C157.07826,100.224841 155.37006,99.233357 153.54576,98.5531736 C154.09836,94.2336493 154.53846,89.9006292 154.86246,85.558612 C154.92276,84.7542682 154.97856,83.9337295 154.78506,83.1509788 C154.52046,82.0812195 153.81576,81.1770074 153.06876,80.3654659 C151.03746,78.1602682 148.54896,76.3779358 145.80576,75.1633226 C143.85996,74.3022968 141.70896,73.6724974 140.24736,72.1249903 C139.71906,71.5662682 139.32486,70.6134716 139.88646,70.0871393 C140.34096,69.6615748 141.07266,69.858612 141.65406,70.0835404 C146.69046,72.0332195 151.62426,74.2474143 156.42846,76.7162281" id="Fill-27" fill="#4E8B46"></path>
                <path d="M185.7285,119.229129 C185.7285,119.229129 165.7098,120.595794 160.3881,113.755272 C155.0664,106.914751 158.5746,101.470585 158.5746,101.470585 L147.5208,119.339794 L140.8761,134.275037 L147.5208,129.46157 L157.5738,123.689908 L160.6752,128.199272 L160.8102,119.229129 C160.8102,119.229129 173.4858,124.489754 178.1262,123.689908 C182.7666,122.890063 185.7285,121.426229 185.7285,121.426229 L185.7285,119.229129 Z" id="Fill-29" fill="#4E8B46"></path>
                <path d="M164.77011,66.9833977 C163.82151,64.9482458 162.65331,62.8186241 160.62831,61.8478332 C159.75081,61.4267673 158.77521,61.2603203 157.81131,61.1163662 C155.91141,60.8320567 153.94671,60.6233232 152.09001,61.1163662 C150.23331,61.6076097 148.48731,62.9454837 148.03191,64.8105897 C147.71961,66.0899822 148.03731,67.4368533 148.47201,68.6802573 C150.01641,73.0996499 153.08811,76.9702172 157.04181,79.4786183 C158.69331,80.5267845 160.71021,81.3599192 162.57321,80.76071 C164.26071,80.2172831 167.32341,77.3220052 167.83101,75.595455 C168.19101,74.3727444 167.14701,72.6192029 166.71591,71.519753 C166.11471,69.9884407 165.46581,68.4742229 164.77011,66.9833977" id="Fill-31" fill="#FFB5B5"></path>
                <polygon id="Fill-33" fill="#4E8B46" points="107.17335 142.127916 140.87655 134.274317 137.11365 139.848042 120.35025 148.713819 109.65195 173.5783"></polygon>
                <path d="M158.9706,102.514972 C158.9139,102.403407 158.8563,102.290943 158.7996,102.178479 C158.2722,101.144708 157.3209,100.012869 156.3885,99.3200894 C155.4552,98.6282097 154.2672,98.1954476 153.1269,98.4140779 C151.3701,98.7514705 150.2613,100.445631 149.3568,101.98864 C148.3002,103.792565 147.2427,105.595591 146.1852,107.399516 C145.8315,108.004124 145.4679,108.637522 145.4274,109.336599 C145.3608,110.470238 146.1456,111.459023 146.9097,112.301155 C148.4271,113.970124 150.0435,115.550021 151.7481,117.02915 C152.2512,117.465511 152.8371,117.918966 153.5013,117.865883 C153.9,117.835293 154.26,117.622061 154.5804,117.381837 C156.7296,115.776748 157.5891,112.968743 157.9329,110.30919 C158.2767,107.649637 158.0418,105.03147 158.9706,102.514972" id="Fill-35" fill="#FFB5B5"></path>
                <path d="M73.82196,54.0034115 L71.57286,92.0127066 C71.57286,92.0127066 50.77926,92.9088212 44.59176,99.7862309 L44.59176,70.7362825 C44.59176,66.9772797 45.34686,58.4282023 45.34686,58.4282023 L73.82196,54.0034115 Z" id="Fill-37" fill="#FF9C20"></path>
                <polygon id="Fill-39" fill="#FF9C20" points="264.7035 159.891949 264.7035 146.04176 292.4433 127.770379 292.4433 173.734041 264.7035 188.692677"></polygon>
                <path d="M270.45873,83.9188842 L270.45873,118.34642 C270.45873,118.34642 234.20313,104.96948 221.03343,104.037377 L221.03343,67.9426722 C221.03343,67.9426722 263.11383,73.5937725 270.45873,83.9188842" id="Fill-41" fill="#00A4FB"></path>
                <path d="M59.20659,14.7499026 L58.13019,84.1861891 C58.13019,84.1861891 15.27759,91.0617994 4.13199,106.316441 L3.90789,28.8853009 C3.90789,28.8853009 40.93299,15.4426819 59.20659,14.7499026" id="Fill-43" fill="#FFFFFF"></path>
                <path d="M228.52881,0.156820057 L229.36401,54.0289633 C229.36401,54.0289633 262.61181,59.3642642 271.25901,71.1990951 L271.43271,11.1234275 C271.43271,11.1234275 242.70651,0.694848711 228.52881,0.156820057" id="Fill-45" fill="#00A4FB"></path>
                <path d="M295.29909,56.0743719 C295.85439,56.8580223 295.92819,57.678561 295.92819,59.1990768 C295.92729,61.04169 295.92819,62.8843032 295.92819,64.7269163 L295.92819,79.4813175 C295.92819,84.8463089 296.90019,91.2360739 295.92999,96.4993977 C295.36119,99.5899135 294.29649,98.3645037 291.85209,97.1624865 C289.59849,96.0549393 287.28189,95.076051 284.93199,94.1934321 C280.04139,92.3589163 274.99599,90.9679593 269.91189,89.7875352 C268.62759,89.4897301 255.51729,87.2746355 255.49389,86.8508705 C254.72979,72.9916842 254.86209,59.082114 255.88809,45.2400223 C262.96029,44.9737072 270.10269,45.2823089 276.98769,46.9224865 C282.91779,48.3350367 288.66519,50.7687616 293.54949,54.4512888 C294.39729,55.0909851 294.94539,55.5750309 295.29909,56.0743719" id="Fill-47" fill="#FFFFFF"></path>
                <path d="M295.92819,64.7270063 C295.92819,64.7270063 274.16529,50.4908401 253.89279,53.1764848 L255.88809,45.2401123 C255.88809,45.2401123 286.19019,42.311545 296.48079,57.326863 L295.92819,64.7270063 Z" id="Fill-49" fill="#1E29CF"></path>
                <path d="M105.01524,87.455388 C51.36984,91.9449582 13.19724,103.474786 13.19724,116.990282 C13.19724,134.409634 76.61304,148.532437 154.83924,148.532437 C233.06544,148.532437 296.48124,134.409634 296.48124,116.990282 C296.48124,104.048803 261.48204,92.9274453 211.41144,88.064494" id="Stroke-51" stroke="#8AA7FF" stroke-width="1.7298" stroke-linecap="round"></path>
                <path d="M72.75843,201.110972 C36.70893,205.706708 13.19823,213.250806 13.19823,221.77829 C13.19823,235.78143 76.61313,247.133115 154.83933,247.133115 C233.06553,247.133115 296.48133,235.78143 296.48133,221.77829 C296.48133,211.374003 261.48123,202.43445 211.41153,198.525195" id="Stroke-53" stroke="#8AA7FF" stroke-width="1.5507" stroke-linecap="round"></path>
                <path d="M70.34256,72.2217095 C70.34256,72.2217095 67.35006,71.7115719 63.66636,71.815039 C40.46346,72.4655318 20.83356,79.5057897 17.58546,81.9880991" id="Stroke-55" stroke="#8AA7FF" stroke-width="1.5507" stroke-linecap="round"></path>
                <path d="M287.8596,167.861071 C282.6936,171.729839 275.8545,172.311054 269.4141,172.751014 C264.6117,173.078509 259.8084,173.406005 255.0051,173.733501" id="Stroke-57" stroke="#8AA7FF" stroke-width="1.5507" stroke-linecap="round"></path>
                <path d="M48.60477,139.104519 L48.60477,202.68637 L42.07977,202.139344 C26.32977,200.817665 11.65617,193.617258 0.97677,181.970468 L0.97677,181.970468 L0.00027,113.486078 L3.56427,117.59327 C12.63177,128.043442 25.03557,135.036915 38.67147,137.390565 L48.60477,139.104519 Z" id="Fill-59" fill="#FFFFFF"></path>
                <path d="M274.02957,160.173109 L255.83517,172.263459 C252.39537,174.549631 248.62617,176.107935 244.82457,176.816009 L227.44377,180.053178 L227.18097,243.102399 L235.17027,242.684932 C246.32937,242.102817 257.75667,237.782393 267.63417,230.41284 L274.02957,225.642559 L274.02957,160.173109 Z" id="Fill-61" fill="#FFFFFF"></path>
                <path d="M109.99044,22.331608 L107.74134,60.3400034 C107.74134,60.3400034 86.94774,61.2361181 80.76024,68.1135278 L80.76024,39.0635794 C80.76024,35.3045765 81.51534,26.7554991 81.51534,26.7554991 L109.99044,22.331608 Z" id="Fill-63" fill="#00A4FB"></path>
                <path d="M271.43235,207.376487 C271.43235,207.376487 227.01195,227.02353 156.98205,220.308968" id="Stroke-65" stroke="#8AA7FF" stroke-width="1.5507" stroke-linecap="round"></path>
                <path d="M153.69867,7.0803851 C153.85977,8.1690384 153.69237,9.2585914 153.05787,10.1448092 C152.44497,11.0022361 151.14897,11.4116057 150.28677,10.8060986 C151.49637,11.4574911 152.75007,12.1475713 153.54027,13.2713135 C154.33137,14.3950556 154.49517,16.0874166 153.53037,17.0672046 C152.95167,16.8692676 152.32527,16.8125857 151.72047,16.9052562 C152.00667,18.9961903 150.22287,21.13211 148.11417,21.2247805 C148.43547,23.0997834 147.01347,24.9585914 145.23327,25.6306774 C143.45217,26.3027633 141.44337,26.0094567 139.64427,25.3895542 C139.65507,26.0877318 139.63347,26.8686831 139.13757,27.3599266 C138.33747,28.1534739 136.99647,27.6379381 135.88047,27.7845914 C133.88607,28.046408 132.94737,30.307388 131.58117,31.7838178 C130.26627,33.205365 128.29437,33.993514 126.36207,33.8684539 C127.31607,34.5234453 126.40437,35.9332963 125.98137,37.011153 C125.01567,39.4727691 127.26567,42.3104653 126.38277,44.8035713 C128.55627,42.8008092 127.81197,39.3072218 128.02437,36.3606602 C128.05947,35.8694166 128.13777,35.3529811 128.44737,34.9697032 C129.08727,34.1770556 130.30317,34.339004 131.32107,34.38309 C134.31087,34.5099496 137.30427,32.8094911 138.72447,30.1760298 C139.92867,31.2547862 141.72867,31.4482246 143.30187,31.0721444 C144.87507,30.6960642 146.27907,29.8278407 147.65247,28.9731129 C151.95807,30.6951645 157.00977,30.4396458 161.12007,28.2938292 C164.43297,26.5636802 165.06927,23.0484997 162.83997,20.0632504 C162.48807,19.5909009 162.10557,19.1221501 161.93277,18.5589295 C161.70867,17.8328607 161.86077,17.0528092 161.92557,16.2961501 C162.19377,13.1903393 160.86537,9.98915874 158.47587,7.98639656 C157.94577,7.54193811 157.34187,7.12087221 157.08267,6.4793765 C156.90357,6.03491805 156.91437,5.54007564 156.84507,5.06682636 C156.65967,3.79823037 155.88297,2.66369169 154.87677,1.86834499 C153.87057,1.07389799 152.64927,0.590751862 151.40637,0.276751862 C150.33177,0.00593810888 149.17977,-0.14431404 148.12587,0.200276218 C146.75157,0.650132951 145.78047,1.849451 144.89217,2.98848825 C146.42667,1.83325616 148.59747,1.58493524 150.35427,2.36318739 C152.00397,3.09375473 153.40347,5.08482063 153.69867,7.0803851" id="Fill-67" fill="#D77906"></path>
                <path d="M145.21068,109.458781 L142.05258,108.23697 C142.05258,108.23697 109.71648,120.236448 106.95708,121.503245" id="Stroke-69" stroke="#B3F2AA" stroke-width="0.7758" stroke-linecap="round"></path>
                <path d="M114.47946,99.6339994 C114.85206,106.065151 114.74406,111.90879 112.81536,118.055633 C111.93606,118.097919 111.10716,117.694848 110.26656,117.43753 C107.68986,116.647581 104.72166,117.295375 102.70836,119.086704" id="Stroke-71" stroke="#B3F2AA" stroke-width="0.7758" stroke-linecap="round"></path>
                <path d="M124.29774,70.4161645 C124.29774,70.4161645 104.11254,79.1982676 99.63594,84.095408 C95.15934,88.9925484 85.18284,123.923924 84.99294,125.259998 C84.80394,126.596073 80.08524,141.70856 93.52044,141.979374 C106.95654,142.250187 130.70574,136.71605 130.70574,136.71605" id="Stroke-73" stroke="#B3F2AA" stroke-width="0.7758" stroke-linecap="round"></path>
                <path d="M106.9569,142.250007 L110.2806,179.939005" id="Stroke-75" stroke="#B3F2AA" stroke-width="0.7758" stroke-linecap="round"></path>
                <path d="M111.35673,182.732705 C111.35673,182.732705 111.97233,222.392074 111.94443,225.35753 C111.91653,228.322086 110.59893,292.799152 110.59893,292.799152 L119.23263,293.065467" id="Stroke-77" stroke="#8AA7FF" stroke-width="1.7298" stroke-linecap="round"></path>
                <path d="M140.85108,194.766372 C140.85108,194.766372 148.70538,228.911398 148.91688,235.244481 C149.12838,241.577564 147.06108,292.485152 147.06108,292.485152 L156.98178,294.295375" id="Stroke-79" stroke="#8AA7FF" stroke-width="1.7298" stroke-linecap="round"></path>
                <path d="M169.82865,106.202628 L156.81825,78.6992865" id="Fill-81" fill="#4E8B46"></path>
                <path d="M174.4947,107.789452 C172.5705,107.180346 171.0072,105.796587 169.5051,104.448816 C167.8266,102.942696 166.1337,101.42128 164.8116,99.5939622 C163.0593,97.1728332 162.0288,94.3189421 161.0199,91.5073375 C160.3692,89.6953146 158.4864,82.8349994 157.9059,80.9977845" id="Stroke-83" stroke="#B3F2AA" stroke-width="0.7758" stroke-linecap="round"></path>
                <path d="M126.99162,50.170812 C126.02502,49.4402447 125.23482,48.478451 124.70652,47.388898 C124.56342,47.0928923 124.43022,46.7770928 124.17822,46.5665599 C123.68772,46.15809 122.89032,46.3254367 122.45832,46.7950871 C122.02722,47.2656372 121.90032,47.9431215 121.92012,48.5810183 C121.95522,49.734451 122.40252,50.8330011 122.92182,51.8631731 C123.46182,52.9347318 124.27902,54.0881645 125.47782,54.1511444 C126.10242,54.1844338 126.83682,53.6536029 126.63432,53.0615914 C126.55152,52.8204682 126.33912,52.6540212 126.16632,52.4677805 C125.41212,51.6553393 125.40222,50.2616831 126.14652,49.4402447" id="Fill-85" fill="#E79B9D"></path>
            </g>
        </g>
    </g>
</svg>