<?xml version="1.0" encoding="UTF-8"?>
<svg width="1440px" height="866px" viewBox="0 0 1440 866" version="1.1" xmlns="http://www.w3.org/2000/svg" xmlns:xlink="http://www.w3.org/1999/xlink">
    <!-- Generator: Sketch 55.2 (78181) - https://sketchapp.com -->
    <title>Group 10</title>
    <desc>Created with Sketch.</desc>
    <defs>
        <linearGradient x1="100%" y1="68.0834298%" x2="0%" y2="31.9165702%" id="linearGradient-1">
            <stop stop-color="#349EF1" offset="0%"></stop>
            <stop stop-color="#0279D6" offset="100%"></stop>
        </linearGradient>
        <rect id="path-2" x="0" y="0" width="1440" height="866"></rect>
    </defs>
    <g id="Web-page" stroke="none" stroke-width="1" fill="none" fill-rule="evenodd">
        <g id="Group-10">
            <mask id="mask-3" fill="white">
                <use xlink:href="#path-2"></use>
            </mask>
            <use id="Rectangle" fill="url(#linearGradient-1)" xlink:href="#path-2"></use>
            <path d="M314.880503,-5.47268409 C272.213836,201.860649 335.54717,300.527316 504.880503,290.527316 C758.880503,275.527316 864.880503,301.527316 828.880503,485.527316 C792.880503,669.527316 1134.8805,468.527316 1120.8805,686.527316 C1106.8805,904.527316 1342.8805,1035.52732 1523.8805,923.527316 C1704.8805,811.527316 2010.8805,-39.4726841 1351.8805,-168.472684 C912.54717,-254.472684 566.880503,-200.139351 314.880503,-5.47268409 Z" id="Path-7" fill="#1B8BE3" mask="url(#mask-3)"></path>
            <path d="M878,0 C876.666667,92 911,134 981,126 C1086,114 1248,72 1236,243 C1228,357 1296,452.333333 1440,529 L1440,0 L878,0 Z" id="Path-8" fill="#0D81DC" mask="url(#mask-3)"></path>
            <path d="M0,598 C9.33333333,655.333333 37,688.333333 83,697 C152,710 237,660 237,758 C237,823.333333 288.333333,859.333333 391,866 L0,866 L0,598 Z" id="Path-9" fill="#1A8BE3" mask="url(#mask-3)"></path>
        </g>
    </g>
</svg>