<?xml version="1.0" encoding="UTF-8"?>
<svg width="752px" height="757px" viewBox="0 0 752 757" version="1.1" xmlns="http://www.w3.org/2000/svg" xmlns:xlink="http://www.w3.org/1999/xlink">
    <!-- Generator: Sketch 55.2 (78181) - https://sketchapp.com -->
    <title>Oval</title>
    <desc>Created with Sketch.</desc>
    <g id="Landing-Pages" stroke="none" stroke-width="1" fill="none" fill-rule="evenodd" opacity="0.5">
        <path d="M375.228692,757 C514.291024,757 493.493165,660.672879 557.970859,618.783804 C621.162681,577.730117 713.669834,591.807809 746.56779,523.400561 C772.523874,469.428078 697.03319,375.932714 697.03319,312.033019 C697.03319,176.118084 781.715208,223.250544 697.03319,46.3012355 C656.919056,-37.5201998 466.810384,23.1165832 375.228692,23.1165832 C244.613281,23.1165832 170.200896,-41.9787867 80.1669505,46.3012355 C16.3480631,108.876887 -13.4326957,224.644715 15.984336,312.033019 C44.0235708,395.328344 -31.2506325,456.329627 15.984336,523.370042 C45.444758,565.18311 115.012761,595.098238 160.395219,618.783804 C283.411897,682.987456 236.166361,757 375.228692,757 Z" id="Oval" fill="#0D81DC"></path>
    </g>
</svg>