<?xml version="1.0" encoding="UTF-8"?>
<svg width="31px" height="31px" viewBox="0 0 31 31" version="1.1" xmlns="http://www.w3.org/2000/svg" xmlns:xlink="http://www.w3.org/1999/xlink">
    <!-- Generator: Sketch 55.2 (78181) - https://sketchapp.com -->
    <title>Group</title>
    <desc>Created with Sketch.</desc>
    <g id="Web-app" stroke="none" stroke-width="1" fill="none" fill-rule="evenodd">
        <g id="Setting---Account" transform="translate(-453.000000, -190.000000)">
            <g id="Group" transform="translate(454.000000, 191.000000)">
                <circle id="Oval" stroke="#FFFFFF" stroke-width="2" fill="#2883FC" cx="14.5" cy="14.5" r="14.5"></circle>
                <g id="photo_camera-24px" transform="translate(7.000000, 7.000000)">
                    <polygon id="Path" points="0 0 16 0 16 16 0 16"></polygon>
                    <path d="M9.41333333,2.66666667 L10.6333333,4 L13.3333333,4 L13.3333333,12 L2.66666667,12 L2.66666667,4 L5.36666667,4 L6.58666667,2.66666667 L9.41333333,2.66666667 L9.41333333,2.66666667 Z M10,1.33333333 L6,1.33333333 L4.78,2.66666667 L2.66666667,2.66666667 C1.93333333,2.66666667 1.33333333,3.26666667 1.33333333,4 L1.33333333,12 C1.33333333,12.7333333 1.93333333,13.3333333 2.66666667,13.3333333 L13.3333333,13.3333333 C14.0666667,13.3333333 14.6666667,12.7333333 14.6666667,12 L14.6666667,4 C14.6666667,3.26666667 14.0666667,2.66666667 13.3333333,2.66666667 L11.22,2.66666667 L10,1.33333333 Z M8,6 C9.1,6 10,6.9 10,8 C10,9.1 9.1,10 8,10 C6.9,10 6,9.1 6,8 C6,6.9 6.9,6 8,6 L8,6 Z M8,4.66666667 C6.16,4.66666667 4.66666667,6.16 4.66666667,8 C4.66666667,9.84 6.16,11.3333333 8,11.3333333 C9.84,11.3333333 11.3333333,9.84 11.3333333,8 C11.3333333,6.16 9.84,4.66666667 8,4.66666667 Z" id="Shape" fill="#FFFFFF" fill-rule="nonzero"></path>
                </g>
            </g>
        </g>
    </g>
</svg>