<?xml version="1.0" encoding="UTF-8"?>
<svg width="129px" height="23px" viewBox="0 0 129 23" version="1.1" xmlns="http://www.w3.org/2000/svg" xmlns:xlink="http://www.w3.org/1999/xlink">
    <!-- Generator: Sketch 55.2 (78181) - https://sketchapp.com -->
    <title>Designhunt</title>
    <desc>Created with Sketch.</desc>
    <g id="Web-page" stroke="none" stroke-width="1" fill="none" fill-rule="evenodd" font-family="CenturyGothic-Bold, Century Gothic" font-size="24" font-weight="bold">
        <g id="Designhunt----Homepage-III" transform="translate(-101.000000, -42.000000)" fill="#FFFFFF">
            <text id="Designhunt">
                <tspan x="100.435547" y="60">Designhunt</tspan>
            </text>
        </g>
    </g>
</svg>