<?xml version="1.0" encoding="UTF-8"?>
<svg width="411px" height="12px" viewBox="0 0 411 12" version="1.1" xmlns="http://www.w3.org/2000/svg" xmlns:xlink="http://www.w3.org/1999/xlink">
    <!-- Generator: Sketch 55.2 (78181) - https://sketchapp.com -->
    <title>Group 2</title>
    <desc>Created with Sketch.</desc>
    <g id="Web-app" stroke="none" stroke-width="1" fill="none" fill-rule="evenodd" opacity="0.399999976">
        <g id="Sign-up-v1.01" transform="translate(-737.000000, -619.000000)">
            <g id="Group-5" transform="translate(737.000000, 135.000000)">
                <g id="Group-2" transform="translate(0.000000, 481.000000)">
                    <path d="M0,9 L182,9" id="Path-2" stroke="#979797"></path>
                    <path d="M229,9 L411,9" id="Path-2-Copy" stroke="#979797"></path>
                    <text id="OR" font-family="Muli-Regular, Muli" font-size="14" font-weight="normal" fill="#676767">
                        <tspan x="194" y="14">OR</tspan>
                    </text>
                </g>
            </g>
        </g>
    </g>
</svg>